*** Darwin 8x20 ***
Turn = 0.
  01234567890123456789
0 .......t............
1 ....................
2 ........r...........
3 ............ff.f....
4 ....f..t............
5 ...................f
6 t..............t....
7 ....................

Turn = 5.
  01234567890123456789
0 .......t............
1 ....................
2 .............r......
3 ............ff.f....
4 ....f..t............
5 ...................f
6 t..............t....
7 ....................

Turn = 10.
  01234567890123456789
0 .......t............
1 ....................
2 ..................r.
3 ............ff.f....
4 ....f..t............
5 ...................f
6 t..............t....
7 ....................

Turn = 15.
  01234567890123456789
0 .......t............
1 ....................
2 ....................
3 ............ff.f....
4 ....f..t...........r
5 ..................r.
6 t..............t....
7 ....................

Turn = 20.
  01234567890123456789
0 .......t............
1 ....................
2 ....................
3 ............ff.f....
4 ....f..t............
5 .............r......
6 t..............t....
7 ...................r

*** Darwin 20x20 ***
Turn = 0.
  01234567890123456789
0 ....................
1 ....................
2 ....................
3 ....................
4 ...............h....
5 ....................
6 ....................
7 ....................
8 ....t...............
9 ....................
0 ....................
1 ...........f........
2 ...........t........
3 .............t......
4 ....................
5 .........f..........
6 ..t.................
7 ....................
8 .....t.t............
9 ..............t.....

Turn = 3.
  01234567890123456789
0 ....................
1 ....................
2 ....................
3 ....................
4 ....................
5 ....................
6 ....................
7 ...............h....
8 ....t...............
9 ....................
0 ....................
1 ...........f........
2 ...........t........
3 .............t......
4 ....................
5 .........f..........
6 ..t.................
7 ....................
8 .....t.t............
9 ..............t.....

Turn = 6.
  01234567890123456789
0 ....................
1 ....................
2 ....................
3 ....................
4 ....................
5 ....................
6 ....................
7 ....................
8 ....t...............
9 ....................
0 ...............h....
1 ...........t........
2 ...........t........
3 .............t......
4 ....................
5 .........f..........
6 ..t.................
7 ....................
8 .....t.t............
9 ..............t.....

Turn = 9.
  01234567890123456789
0 ....................
1 ....................
2 ....................
3 ....................
4 ....................
5 ....................
6 ....................
7 ....................
8 ....t...............
9 ....................
0 ....................
1 ...........t........
2 ...........t........
3 .............t.h....
4 ....................
5 .........f..........
6 ..t.................
7 ....................
8 .....t.t............
9 ..............t.....

Turn = 12.
  01234567890123456789
0 ....................
1 ....................
2 ....................
3 ....................
4 ....................
5 ....................
6 ....................
7 ....................
8 ....t...............
9 ....................
0 ....................
1 ...........t........
2 ...........t........
3 .............t......
4 ....................
5 .........f..........
6 ..t............h....
7 ....................
8 .....t.t............
9 ..............t.....

Turn = 15.
  01234567890123456789
0 ....................
1 ....................
2 ....................
3 ....................
4 ....................
5 ....................
6 ....................
7 ....................
8 ....t...............
9 ....................
0 ....................
1 ...........t........
2 ...........t........
3 .............t......
4 ....................
5 .........f..........
6 ..t.................
7 ....................
8 .....t.t............
9 ..............th....

Turn = 18.
  01234567890123456789
0 ....................
1 ....................
2 ....................
3 ....................
4 ....................
5 ....................
6 ....................
7 ....................
8 ....t...............
9 ....................
0 ....................
1 ...........t........
2 ...........t........
3 .............t......
4 ....................
5 .........f..........
6 ..t.................
7 ....................
8 .....t.t............
9 ..............tt....

Turn = 21.
  01234567890123456789
0 ....................
1 ....................
2 ....................
3 ....................
4 ....................
5 ....................
6 ....................
7 ....................
8 ....t...............
9 ....................
0 ....................
1 ...........t........
2 ...........t........
3 .............t......
4 ....................
5 .........f..........
6 ..t.................
7 ....................
8 .....t.t............
9 ..............tt....

*** Darwin 2x10 ***
Turn = 0.
  0123456789
0 ......h...
1 .....r.r.r

Turn = 5.
  0123456789
0 .r.....r..
1 ..r.r.....

Turn = 10.
  0123456789
0 r.........
1 rr.......r

Turn = 15.
  0123456789
0 .r...r....
1 .....rr...

Turn = 20.
  0123456789
0 .........r
1 ....rr...r

*** Darwin 11x2 ***
Turn = 0.
  01
0 h.
1 .f
2 ..
3 ..
4 .r
5 ..
6 ..
7 ..
8 .f
9 t.
0 f.

Turn = 2.
  01
0 .h
1 .f
2 ..
3 ..
4 r.
5 ..
6 ..
7 ..
8 .f
9 t.
0 t.

Turn = 4.
  01
0 .h
1 .f
2 r.
3 ..
4 ..
5 ..
6 ..
7 ..
8 .f
9 t.
0 t.

Turn = 6.
  01
0 rh
1 .f
2 ..
3 ..
4 ..
5 ..
6 ..
7 ..
8 .f
9 t.
0 t.

Turn = 8.
  01
0 rh
1 .f
2 ..
3 ..
4 ..
5 ..
6 ..
7 ..
8 .f
9 t.
0 t.

Turn = 10.
  01
0 rr
1 .f
2 ..
3 ..
4 ..
5 ..
6 ..
7 ..
8 .f
9 t.
0 t.

Turn = 12.
  01
0 .r
1 rr
2 ..
3 ..
4 ..
5 ..
6 ..
7 ..
8 .f
9 t.
0 t.

Turn = 14.
  01
0 .r
1 .r
2 ..
3 r.
4 ..
5 ..
6 ..
7 ..
8 .f
9 t.
0 t.

Turn = 16.
  01
0 r.
1 r.
2 ..
3 ..
4 ..
5 r.
6 ..
7 ..
8 .f
9 t.
0 t.

Turn = 18.
  01
0 r.
1 r.
2 ..
3 ..
4 ..
5 ..
6 ..
7 r.
8 .f
9 t.
0 t.

*** Darwin 14x13 ***
Turn = 0.
  0123456789012
0 .............
1 .............
2 .............
3 .............
4 .............
5 .............
6 .............
7 .............
8 .............
9 .............
0 ......h......
1 .............
2 .............
3 .f...........

Turn = 1.
  0123456789012
0 .............
1 .............
2 .............
3 .............
4 .............
5 .............
6 .............
7 .............
8 .............
9 ......h......
0 .............
1 .............
2 .............
3 .f...........

Turn = 2.
  0123456789012
0 .............
1 .............
2 .............
3 .............
4 .............
5 .............
6 .............
7 .............
8 ......h......
9 .............
0 .............
1 .............
2 .............
3 .f...........

Turn = 3.
  0123456789012
0 .............
1 .............
2 .............
3 .............
4 .............
5 .............
6 .............
7 ......h......
8 .............
9 .............
0 .............
1 .............
2 .............
3 .f...........

Turn = 4.
  0123456789012
0 .............
1 .............
2 .............
3 .............
4 .............
5 .............
6 ......h......
7 .............
8 .............
9 .............
0 .............
1 .............
2 .............
3 .f...........

Turn = 5.
  0123456789012
0 .............
1 .............
2 .............
3 .............
4 .............
5 ......h......
6 .............
7 .............
8 .............
9 .............
0 .............
1 .............
2 .............
3 .f...........

Turn = 6.
  0123456789012
0 .............
1 .............
2 .............
3 .............
4 ......h......
5 .............
6 .............
7 .............
8 .............
9 .............
0 .............
1 .............
2 .............
3 .f...........

Turn = 7.
  0123456789012
0 .............
1 .............
2 .............
3 ......h......
4 .............
5 .............
6 .............
7 .............
8 .............
9 .............
0 .............
1 .............
2 .............
3 .f...........

Turn = 8.
  0123456789012
0 .............
1 .............
2 ......h......
3 .............
4 .............
5 .............
6 .............
7 .............
8 .............
9 .............
0 .............
1 .............
2 .............
3 .f...........

Turn = 9.
  0123456789012
0 .............
1 ......h......
2 .............
3 .............
4 .............
5 .............
6 .............
7 .............
8 .............
9 .............
0 .............
1 .............
2 .............
3 .f...........

Turn = 10.
  0123456789012
0 ......h......
1 .............
2 .............
3 .............
4 .............
5 .............
6 .............
7 .............
8 .............
9 .............
0 .............
1 .............
2 .............
3 .f...........

Turn = 11.
  0123456789012
0 ......h......
1 .............
2 .............
3 .............
4 .............
5 .............
6 .............
7 .............
8 .............
9 .............
0 .............
1 .............
2 .............
3 .f...........

Turn = 12.
  0123456789012
0 ......h......
1 .............
2 .............
3 .............
4 .............
5 .............
6 .............
7 .............
8 .............
9 .............
0 .............
1 .............
2 .............
3 .f...........

Turn = 13.
  0123456789012
0 ......h......
1 .............
2 .............
3 .............
4 .............
5 .............
6 .............
7 .............
8 .............
9 .............
0 .............
1 .............
2 .............
3 .f...........

Turn = 14.
  0123456789012
0 ......h......
1 .............
2 .............
3 .............
4 .............
5 .............
6 .............
7 .............
8 .............
9 .............
0 .............
1 .............
2 .............
3 .f...........

Turn = 15.
  0123456789012
0 ......h......
1 .............
2 .............
3 .............
4 .............
5 .............
6 .............
7 .............
8 .............
9 .............
0 .............
1 .............
2 .............
3 .f...........

Turn = 16.
  0123456789012
0 ......h......
1 .............
2 .............
3 .............
4 .............
5 .............
6 .............
7 .............
8 .............
9 .............
0 .............
1 .............
2 .............
3 .f...........

Turn = 17.
  0123456789012
0 ......h......
1 .............
2 .............
3 .............
4 .............
5 .............
6 .............
7 .............
8 .............
9 .............
0 .............
1 .............
2 .............
3 .f...........

Turn = 18.
  0123456789012
0 ......h......
1 .............
2 .............
3 .............
4 .............
5 .............
6 .............
7 .............
8 .............
9 .............
0 .............
1 .............
2 .............
3 .f...........

*** Darwin 17x8 ***
Turn = 0.
  01234567
0 ........
1 ....r...
2 ........
3 ........
4 ........
5 .....t..
6 ........
7 ..tf....
8 ........
9 ..f....t
0 ........
1 ......h.
2 ........
3 .....f..
4 ........
5 ........
6 ..thr...

Turn = 5.
  01234567
0 ........
1 ........
2 ........
3 ........
4 ........
5 .....t..
6 ....r...
7 ..tt....
8 ........
9 ..f....t
0 ........
1 ........
2 ........
3 .....f..
4 ........
5 ........
6 ..ttt.h.

*** Darwin 13x2 ***
Turn = 0.
  01
0 ..
1 .t
2 ..
3 rt
4 ..
5 ..
6 .f
7 ..
8 ..
9 ..
0 ..
1 ..
2 ..

Turn = 3.
  01
0 ..
1 .t
2 .t
3 .r
4 ..
5 ..
6 .f
7 ..
8 ..
9 ..
0 ..
1 ..
2 ..

Turn = 6.
  01
0 ..
1 .t
2 .t
3 .t
4 ..
5 ..
6 .f
7 ..
8 ..
9 ..
0 ..
1 ..
2 ..

Turn = 9.
  01
0 ..
1 .t
2 .t
3 .t
4 ..
5 ..
6 .f
7 ..
8 ..
9 ..
0 ..
1 ..
2 ..

Turn = 12.
  01
0 ..
1 .t
2 .t
3 .t
4 ..
5 ..
6 .f
7 ..
8 ..
9 ..
0 ..
1 ..
2 ..

Turn = 15.
  01
0 ..
1 .t
2 .t
3 .t
4 ..
5 ..
6 .f
7 ..
8 ..
9 ..
0 ..
1 ..
2 ..

Turn = 18.
  01
0 ..
1 .t
2 .t
3 .t
4 ..
5 ..
6 .f
7 ..
8 ..
9 ..
0 ..
1 ..
2 ..

*** Darwin 17x14 ***
Turn = 0.
  01234567890123
0 .h............
1 ..............
2 ..............
3 ..............
4 .t............
5 ..............
6 ..............
7 ..............
8 ..............
9 .t............
0 ..............
1 ....f.........
2 .....f....r...
3 ..............
4 ..............
5 ..............
6 .h............

Turn = 5.
  01234567890123
0 ..............
1 ..............
2 ..............
3 .t............
4 .t............
5 ..............
6 ..............
7 ..........r...
8 ..............
9 .t............
0 ..............
1 ....f.........
2 .....f........
3 ..............
4 ..............
5 ..............
6 .h............

Turn = 10.
  01234567890123
0 ..............
1 ..............
2 ..........r...
3 .t............
4 .t............
5 ..............
6 ..............
7 ..............
8 ..............
9 .t............
0 ..............
1 ....f.........
2 .....f........
3 ..............
4 ..............
5 ..............
6 .h............

Turn = 15.
  01234567890123
0 ............r.
1 ..............
2 ..............
3 .t............
4 .t............
5 ..............
6 ..............
7 ..............
8 ..............
9 .t............
0 ..............
1 ....f.........
2 .....f........
3 ..............
4 ..............
5 ..............
6 .h............

Turn = 20.
  01234567890123
0 ..............
1 .............r
2 ..............
3 .t............
4 .t............
5 ..............
6 ..............
7 ..............
8 ..............
9 .t............
0 ..............
1 ....f.........
2 .....f........
3 ..............
4 ..............
5 ..............
6 .h............

*** Darwin 16x15 ***
Turn = 0.
  012345678901234
0 ...............
1 ...............
2 ...............
3 ...............
4 ...............
5 ...............
6 ...............
7 ..............r
8 ...............
9 ...............
0 ...............
1 ...............
2 ...............
3 ...............
4 ...............
5 ...............

Turn = 3.
  012345678901234
0 ...............
1 ...............
2 ...............
3 ...............
4 ...............
5 ...............
6 ...............
7 ...............
8 ...............
9 ...............
0 ..............r
1 ...............
2 ...............
3 ...............
4 ...............
5 ...............

Turn = 6.
  012345678901234
0 ...............
1 ...............
2 ...............
3 ...............
4 ...............
5 ...............
6 ...............
7 ...............
8 ...............
9 ...............
0 ...............
1 ...............
2 ...............
3 ..............r
4 ...............
5 ...............

Turn = 9.
  012345678901234
0 ...............
1 ...............
2 ...............
3 ...............
4 ...............
5 ...............
6 ...............
7 ...............
8 ...............
9 ...............
0 ...............
1 ...............
2 ...............
3 ...............
4 ...............
5 ..............r

Turn = 12.
  012345678901234
0 ...............
1 ...............
2 ...............
3 ...............
4 ...............
5 ...............
6 ...............
7 ...............
8 ...............
9 ...............
0 ...............
1 ...............
2 ...............
3 ...............
4 ...............
5 ...........r...

Turn = 15.
  012345678901234
0 ...............
1 ...............
2 ...............
3 ...............
4 ...............
5 ...............
6 ...............
7 ...............
8 ...............
9 ...............
0 ...............
1 ...............
2 ...............
3 ...............
4 ...............
5 ........r......

Turn = 18.
  012345678901234
0 ...............
1 ...............
2 ...............
3 ...............
4 ...............
5 ...............
6 ...............
7 ...............
8 ...............
9 ...............
0 ...............
1 ...............
2 ...............
3 ...............
4 ...............
5 .....r.........

*** Darwin 4x14 ***
Turn = 0.
  01234567890123
0 ........f....h
1 ............r.
2 ..r...........
3 ....t...ft....

Turn = 3.
  01234567890123
0 ..r.....f....r
1 ..............
2 ..............
3 ....t...tt...h

Turn = 6.
  01234567890123
0 r.......f.....
1 ..............
2 .............r
3 ....t...tt...h

Turn = 9.
  01234567890123
0 ..r.....f.....
1 ..............
2 .............r
3 ....t...tt.r..

Turn = 12.
  01234567890123
0 .....r..f....r
1 ..............
2 ..............
3 ....t...trr...
